# Blender v2.79 (sub 0) OBJ File: 'Grass.blend'
# www.blender.org
o Cube.001_Cube.000
v -0.351840 0.000000 0.135762
v -0.381445 0.257744 0.212683
v -0.138689 0.000000 -0.072962
v -0.227811 0.338911 0.062239
v -0.143116 0.000000 0.348914
v -0.220641 0.257744 0.376898
v 0.070036 0.000000 0.140189
v -0.067006 0.338911 0.226455
v -0.429991 0.457770 0.321495
v -0.357517 0.557537 0.250526
v -0.330448 0.457770 0.423149
v -0.257974 0.557537 0.352181
v -0.620167 0.878532 0.548564
v -0.585097 0.946592 0.514221
v -0.561458 0.878532 0.608519
v -0.526387 0.946592 0.574177
v -0.880123 1.160282 0.841476
v 0.373861 0.259258 -0.211254
v -0.859761 1.160282 0.862270
v 0.350119 0.000000 -0.134076
v 0.136967 0.000000 0.074648
v 0.225956 0.337398 -0.066420
v 0.141394 0.000000 -0.347228
v 0.219053 0.259258 -0.369345
v -0.071758 0.000000 -0.138503
v 0.071147 0.337398 -0.224512
v 0.449011 0.540335 -0.340120
v 0.376537 0.640103 -0.269151
v 0.349468 0.540335 -0.441775
v 0.276994 0.640103 -0.370806
v 0.697154 1.021110 -0.623951
v 0.660933 1.087979 -0.588482
v 0.638444 1.021110 -0.683906
v 0.602223 1.087979 -0.648437
v 0.952226 1.312104 -0.912081
v 0.931863 1.312104 -0.932875
v 0.067612 0.266460 0.200163
v 0.071504 0.000000 0.211101
v -0.060072 0.000000 0.050909
v -0.039558 0.330196 0.069685
v 0.231696 0.000000 0.079524
v 0.207076 0.266460 0.085611
v 0.100119 0.000000 -0.080667
v 0.099905 0.330196 -0.044867
v 0.118417 0.569713 0.221920
v 0.049854 0.606569 0.141994
v 0.203978 0.573870 0.150439
v 0.135415 0.610725 0.070514
v 0.130444 1.125279 0.258552
v 0.093876 1.141953 0.218324
v 0.173194 1.129019 0.221242
v 0.136625 1.145693 0.181014
v 0.147576 1.293276 0.307122
v 0.165017 1.293276 0.292796
v -0.220494 0.298373 -0.275277
v -0.125663 0.000000 -0.204232
v 0.005914 0.000000 -0.044041
v -0.127845 0.353473 -0.162478
v -0.285854 0.000000 -0.072655
v -0.341061 0.298373 -0.176246
v -0.154277 0.000000 0.087536
v -0.248412 0.353473 -0.063448
v -0.345947 0.562386 -0.376828
v -0.289793 0.592571 -0.311367
v -0.416023 0.565791 -0.318285
v -0.359869 0.595976 -0.252824
v -0.520123 0.844319 -0.587943
v -0.497799 0.878802 -0.562701
v -0.557197 0.845780 -0.557153
v -0.534873 0.880264 -0.531911
v -0.638665 0.962131 -0.745363
v -0.654925 0.962131 -0.732009
v 0.609544 1.086537 0.746752
v 0.592103 1.086537 0.761078
v 0.527389 1.008313 0.580066
v 0.556518 0.971976 0.612697
v 0.483806 1.006117 0.616526
v 0.512935 0.969779 0.649156
v 0.373379 0.661361 0.313524
v 0.436762 0.607888 0.388160
v 0.287426 0.658692 0.384605
v 0.350809 0.605218 0.459241
v 0.296671 0.391526 0.176625
v 0.195104 0.000000 -0.003438
v 0.387997 0.337213 0.287811
v 0.342889 0.000000 0.176486
v 0.177828 0.391526 0.274240
v 0.015179 0.000000 0.144347
v 0.162965 0.000000 0.324272
v 0.269153 0.337213 0.385426
v -0.059257 0.268048 -0.131693
v -0.074497 0.000000 -0.129692
v 0.065509 0.000000 0.029462
v 0.047191 0.328700 -0.015373
v -0.227364 0.000000 -0.023460
v -0.211352 0.276431 -0.020949
v -0.097970 0.000000 0.142161
v -0.094432 0.330381 0.110786
v -0.113000 0.579424 -0.149787
v -0.042391 0.605206 -0.076065
v -0.207207 0.571667 -0.067938
v -0.129252 0.608741 -0.001365
v -0.124803 1.124950 -0.190947
v -0.088220 1.142122 -0.147502
v -0.164815 1.125237 -0.159808
v -0.136437 1.134445 -0.106078
v -0.149088 1.285894 -0.231034
v -0.156961 1.295556 -0.217942
v -0.138689 0.000000 -0.072962
v -0.138689 0.000000 -0.072962
v -0.351840 0.000000 0.135762
v -0.351840 0.000000 0.135762
v -0.381445 0.257744 0.212683
v -0.227811 0.338911 0.062239
v 0.070036 0.000000 0.140189
v 0.070036 0.000000 0.140189
v -0.067006 0.338911 0.226455
v -0.143116 0.000000 0.348914
v -0.143116 0.000000 0.348914
v -0.220641 0.257744 0.376898
v -0.257974 0.557537 0.352181
v -0.330448 0.457770 0.423149
v -0.429991 0.457770 0.321495
v -0.357517 0.557537 0.250526
v -0.526387 0.946592 0.574177
v -0.561458 0.878532 0.608519
v -0.620167 0.878532 0.548564
v -0.585097 0.946592 0.514221
v -0.071758 0.000000 -0.138503
v -0.071758 0.000000 -0.138503
v 0.136967 0.000000 0.074648
v 0.136967 0.000000 0.074648
v 0.225956 0.337398 -0.066420
v -0.859761 1.160282 0.862270
v -0.859761 1.160282 0.862270
v -0.880123 1.160282 0.841476
v -0.880123 1.160282 0.841476
v 0.350119 0.000000 -0.134076
v 0.350119 0.000000 -0.134076
v 0.373861 0.259258 -0.211254
v 0.071147 0.337398 -0.224512
v 0.141394 0.000000 -0.347228
v 0.141394 0.000000 -0.347228
v 0.219053 0.259258 -0.369345
v 0.276994 0.640103 -0.370806
v 0.349468 0.540335 -0.441775
v 0.449011 0.540335 -0.340120
v 0.376537 0.640103 -0.269151
v 0.602223 1.087979 -0.648437
v 0.638444 1.021110 -0.683906
v 0.697154 1.021110 -0.623951
v 0.660933 1.087979 -0.588482
v 0.931863 1.312104 -0.932875
v 0.931863 1.312104 -0.932875
v 0.952226 1.312104 -0.912081
v 0.952226 1.312104 -0.912081
v 0.100119 0.000000 -0.080667
v 0.100119 0.000000 -0.080667
v -0.060072 0.000000 0.050909
v -0.060072 0.000000 0.050909
v -0.039558 0.330196 0.069685
v 0.071504 0.000000 0.211101
v 0.071504 0.000000 0.211101
v 0.067612 0.266460 0.200163
v 0.099905 0.330196 -0.044867
v 0.231696 0.000000 0.079524
v 0.231696 0.000000 0.079524
v 0.207076 0.266460 0.085611
v 0.135415 0.610725 0.070514
v 0.203978 0.573870 0.150439
v 0.118417 0.569713 0.221920
v 0.049854 0.606569 0.141994
v 0.136625 1.145693 0.181014
v 0.173194 1.129019 0.221242
v 0.130444 1.125279 0.258552
v 0.093876 1.141953 0.218324
v 0.165017 1.293276 0.292796
v 0.165017 1.293276 0.292796
v 0.147576 1.293276 0.307122
v 0.147576 1.293276 0.307122
v -0.154277 0.000000 0.087536
v -0.154277 0.000000 0.087536
v 0.005914 0.000000 -0.044041
v 0.005914 0.000000 -0.044041
v -0.127845 0.353473 -0.162478
v -0.125663 0.000000 -0.204232
v -0.125663 0.000000 -0.204232
v -0.220494 0.298373 -0.275277
v -0.248412 0.353473 -0.063448
v -0.285854 0.000000 -0.072655
v -0.285854 0.000000 -0.072655
v -0.341061 0.298373 -0.176246
v -0.359869 0.595976 -0.252824
v -0.416023 0.565791 -0.318285
v -0.345947 0.562386 -0.376828
v -0.289793 0.592571 -0.311367
v -0.534873 0.880264 -0.531911
v -0.557197 0.845780 -0.557153
v -0.520123 0.844319 -0.587943
v -0.497799 0.878802 -0.562701
v -0.654925 0.962131 -0.732009
v -0.654925 0.962131 -0.732009
v -0.638665 0.962131 -0.745363
v -0.638665 0.962131 -0.745363
v 0.483806 1.006117 0.616526
v 0.592103 1.086537 0.761078
v 0.592103 1.086537 0.761078
v 0.609544 1.086537 0.746752
v 0.609544 1.086537 0.746752
v 0.527389 1.008313 0.580066
v 0.512935 0.969779 0.649156
v 0.556518 0.971976 0.612697
v 0.287426 0.658692 0.384605
v 0.350809 0.605218 0.459241
v 0.436762 0.607888 0.388160
v 0.373379 0.661361 0.313524
v 0.177828 0.391526 0.274240
v 0.269153 0.337213 0.385426
v 0.387997 0.337213 0.287811
v 0.296671 0.391526 0.176625
v 0.162965 0.000000 0.324272
v 0.162965 0.000000 0.324272
v 0.342889 0.000000 0.176486
v 0.342889 0.000000 0.176486
v 0.195104 0.000000 -0.003438
v 0.195104 0.000000 -0.003438
v 0.015179 0.000000 0.144347
v 0.015179 0.000000 0.144347
v -0.097970 0.000000 0.142161
v -0.097970 0.000000 0.142161
v 0.065509 0.000000 0.029462
v 0.065509 0.000000 0.029462
v 0.047191 0.328700 -0.015373
v -0.074497 0.000000 -0.129692
v -0.074497 0.000000 -0.129692
v -0.059257 0.268048 -0.131693
v -0.094432 0.330381 0.110786
v -0.227364 0.000000 -0.023460
v -0.227364 0.000000 -0.023460
v -0.211352 0.276431 -0.020949
v -0.129252 0.608741 -0.001365
v -0.207207 0.571667 -0.067938
v -0.113000 0.579424 -0.149787
v -0.042391 0.605206 -0.076065
v -0.136437 1.134445 -0.106078
v -0.164815 1.125237 -0.159808
v -0.124803 1.124950 -0.190947
v -0.088220 1.142122 -0.147502
v -0.156961 1.295556 -0.217942
v -0.156961 1.295556 -0.217942
v -0.149088 1.285894 -0.231034
v -0.149088 1.285894 -0.231034
vt 0.660567 0.129519
vt 0.610091 0.192598
vt 0.559433 0.149907
vt 0.610759 0.057434
vt 0.565565 0.254014
vt 0.523879 0.236031
vt 0.463892 0.385106
vt 0.439283 0.372324
vt 0.409048 0.454687
vt 0.610759 0.057434
vt 0.559433 0.149907
vt 0.497964 0.128538
vt 0.528816 0.023460
vt 0.523879 0.236031
vt 0.482658 0.220517
vt 0.439283 0.372324
vt 0.420394 0.363857
vt 0.409048 0.454687
vt 0.395938 0.471026
vt 0.797335 0.233195
vt 0.705780 0.295354
vt 0.660478 0.242188
vt 0.721921 0.188052
vt 0.618583 0.324613
vt 0.599885 0.285495
vt 0.496881 0.422571
vt 0.485356 0.404376
vt 0.395938 0.471026
vt 0.721921 0.188052
vt 0.660478 0.242188
vt 0.610091 0.192598
vt 0.660567 0.129519
vt 0.599885 0.285495
vt 0.565565 0.254014
vt 0.463892 0.385106
vt 0.485356 0.404376
vt 0.395938 0.471026
vt 0.409048 0.454687
vt 0.968617 0.089629
vt 0.968586 0.177625
vt 0.880589 0.177595
vt 0.880620 0.089598
vt 0.384258 0.079393
vt 0.354054 0.157606
vt 0.292404 0.137072
vt 0.307309 0.026679
vt 0.328747 0.251257
vt 0.285983 0.252590
vt 0.311596 0.433301
vt 0.290697 0.432422
vt 0.275624 0.538040
vt 0.307309 0.026679
vt 0.292404 0.137072
vt 0.229013 0.138375
vt 0.214072 0.026679
vt 0.285983 0.252590
vt 0.241065 0.254863
vt 0.290697 0.432422
vt 0.264431 0.433304
vt 0.275624 0.538040
vt 0.273078 0.517079
vt 0.214072 0.026679
vt 0.229013 0.138375
vt 0.166746 0.160264
vt 0.136110 0.080578
vt 0.241065 0.254863
vt 0.198029 0.257160
vt 0.264431 0.433304
vt 0.237928 0.437413
vt 0.273078 0.517079
vt 0.136110 0.080578
vt 0.166746 0.160264
vt 0.104745 0.191386
vt 0.055726 0.123951
vt 0.198029 0.257160
vt 0.157540 0.273335
vt 0.218530 0.444627
vt 0.237928 0.437413
vt 0.273078 0.517079
vt 0.275624 0.538040
vt 0.880589 0.266113
vt 0.880589 0.178116
vt 0.968586 0.178116
vt 0.968586 0.266113
vt 0.689635 0.450109
vt 0.704896 0.529840
vt 0.659456 0.554004
vt 0.628202 0.464499
vt 0.721711 0.622000
vt 0.690286 0.636271
vt 0.763560 0.783424
vt 0.749512 0.785650
vt 0.752984 0.825706
vt 0.628202 0.464499
vt 0.659456 0.554004
vt 0.615049 0.570788
vt 0.569039 0.489118
vt 0.690286 0.636271
vt 0.655816 0.651842
vt 0.749512 0.785650
vt 0.734478 0.790000
vt 0.752984 0.825706
vt 0.748024 0.819681
vt 0.569039 0.489118
vt 0.615049 0.570788
vt 0.566953 0.588345
vt 0.518050 0.524567
vt 0.655816 0.651842
vt 0.623537 0.665830
vt 0.734478 0.790000
vt 0.721587 0.799092
vt 0.748024 0.819681
vt 0.518050 0.524567
vt 0.566953 0.588345
vt 0.526952 0.625692
vt 0.471584 0.566684
vt 0.623537 0.665830
vt 0.597728 0.688555
vt 0.711887 0.814376
vt 0.721587 0.799092
vt 0.748024 0.819681
vt 0.752984 0.825706
vt 0.742550 0.339354
vt 0.803697 0.339354
vt 0.803697 0.400501
vt 0.742550 0.400501
vt 0.860363 0.483771
vt 0.860246 0.577990
vt 0.815557 0.573778
vt 0.803036 0.462155
vt 0.861545 0.675687
vt 0.833840 0.666972
vt 0.863231 0.799380
vt 0.848619 0.798162
vt 0.859713 0.835740
vt 0.803036 0.462155
vt 0.815557 0.573778
vt 0.772608 0.584468
vt 0.742652 0.474144
vt 0.833840 0.666972
vt 0.806732 0.672936
vt 0.848619 0.798162
vt 0.834709 0.800861
vt 0.859713 0.835740
vt 0.862397 0.866320
vt 0.975513 0.473506
vt 0.951756 0.583913
vt 0.906055 0.581078
vt 0.918194 0.488151
vt 0.917671 0.671779
vt 0.890501 0.677013
vt 0.891604 0.800801
vt 0.877520 0.800038
vt 0.862397 0.866320
vt 0.918194 0.488151
vt 0.906055 0.581078
vt 0.860246 0.577990
vt 0.860363 0.483771
vt 0.890501 0.677013
vt 0.861545 0.675687
vt 0.863231 0.799380
vt 0.877520 0.800038
vt 0.862397 0.866320
vt 0.859713 0.835740
vt 0.865335 0.400501
vt 0.804188 0.400501
vt 0.804188 0.339354
vt 0.865335 0.339354
vt 0.343098 0.579739
vt 0.333311 0.588907
vt 0.302483 0.567859
vt 0.435736 0.669678
vt 0.410622 0.690268
vt 0.501706 0.731663
vt 0.466038 0.761298
vt 0.536839 0.844429
vt 0.601598 0.818856
vt 0.321279 0.599791
vt 0.308117 0.606998
vt 0.304855 0.573965
vt 0.382618 0.709038
vt 0.352515 0.724908
vt 0.427696 0.787916
vt 0.386367 0.810930
vt 0.433743 0.935702
vt 0.480468 0.883043
vt 0.308117 0.606998
vt 0.291811 0.607117
vt 0.302483 0.567859
vt 0.304855 0.573965
vt 0.352515 0.724908
vt 0.320135 0.734106
vt 0.386367 0.810930
vt 0.341482 0.824010
vt 0.366341 0.955422
vt 0.433743 0.935702
vt 0.410622 0.690268
vt 0.382618 0.709038
vt 0.321279 0.599791
vt 0.333311 0.588907
vt 0.304855 0.573965
vt 0.302483 0.567859
vt 0.466038 0.761298
vt 0.427696 0.787916
vt 0.480468 0.883043
vt 0.536839 0.844429
vt 0.906109 0.346978
vt 0.974788 0.346978
vt 0.974788 0.415658
vt 0.906109 0.415658
vt 0.149934 0.942860
vt 0.161257 0.865746
vt 0.207391 0.856262
vt 0.211437 0.949560
vt 0.166627 0.771597
vt 0.199157 0.770360
vt 0.179795 0.605228
vt 0.198064 0.604429
vt 0.186606 0.573238
vt 0.211437 0.949560
vt 0.207391 0.856262
vt 0.260969 0.852116
vt 0.269154 0.948264
vt 0.199157 0.770360
vt 0.234443 0.765966
vt 0.198064 0.604429
vt 0.216260 0.603682
vt 0.186606 0.573238
vt 0.185767 0.556756
vt 0.035171 0.927808
vt 0.057164 0.832484
vt 0.106671 0.856458
vt 0.095932 0.937857
vt 0.100600 0.754155
vt 0.128946 0.770067
vt 0.147754 0.598691
vt 0.165145 0.603615
vt 0.185767 0.556756
vt 0.095932 0.937857
vt 0.106671 0.856458
vt 0.161257 0.865746
vt 0.149934 0.942860
vt 0.128946 0.770067
vt 0.166627 0.771597
vt 0.179795 0.605228
vt 0.165145 0.603615
vt 0.185767 0.556756
vt 0.186606 0.573238
vt 0.938752 0.335384
vt 0.880589 0.328493
vt 0.884200 0.266604
vt 0.938752 0.272859
vn -0.7076 0.1075 -0.6984
vn -0.7287 0.1249 -0.6733
vn -0.7246 0.1215 -0.6783
vn -0.7409 0.0969 -0.6645
vn -0.7396 0.0895 -0.6671
vn -0.7301 0.0359 -0.6824
vn -0.7302 0.0356 -0.6823
vn -0.7314 0.0332 -0.6811
vn 0.6474 0.4231 -0.6339
vn 0.5880 0.5680 -0.5758
vn 0.5151 0.6929 -0.5044
vn 0.4349 0.7934 -0.4258
vn 0.3123 0.8994 -0.3058
vn 0.6833 0.1075 0.7221
vn 0.6630 0.1215 0.7387
vn 0.6578 0.1249 0.7427
vn 0.6514 0.0895 0.7534
vn 0.6489 0.0969 0.7547
vn 0.6668 0.0356 0.7443
vn 0.6670 0.0360 0.7442
vn 0.6656 0.0332 0.7456
vn -0.6860 -0.2793 0.6718
vn -0.6627 -0.3737 0.6489
vn -0.6074 -0.5265 0.5948
vn -0.5117 -0.6979 0.5011
vn -0.4179 -0.8111 0.4093
vn 0.0000 -1.0000 0.0000
vn 0.7077 0.1209 0.6960
vn 0.7217 0.1088 0.6836
vn 0.7197 0.1106 0.6854
vn 0.7307 0.0686 0.6792
vn 0.7299 0.0635 0.6806
vn 0.7272 0.0332 0.6856
vn 0.7274 0.0333 0.6853
vn 0.7309 0.0343 0.6817
vn -0.6439 0.4334 0.6305
vn -0.6050 0.5320 0.5924
vn -0.5355 0.6620 0.5244
vn -0.4315 0.7970 0.4226
vn -0.3275 0.8887 0.3207
vn -0.6810 0.1209 -0.7222
vn -0.6702 0.1106 -0.7339
vn -0.6683 0.1088 -0.7359
vn -0.6652 0.0635 -0.7440
vn -0.6637 0.0686 -0.7448
vn -0.6699 0.0333 -0.7417
vn -0.6702 0.0332 -0.7414
vn -0.6662 0.0343 -0.7450
vn 0.6891 -0.2640 -0.6748
vn 0.6683 -0.3536 -0.6544
vn 0.6041 -0.5339 -0.5916
vn 0.5036 -0.7093 -0.4932
vn 0.4316 -0.7969 -0.4227
vn -0.7713 0.0131 0.6364
vn -0.7620 0.0380 0.6464
vn -0.7589 0.0462 0.6495
vn -0.7533 0.0302 0.6569
vn -0.7543 0.0208 0.6561
vn -0.7587 -0.0656 0.6481
vn -0.7587 -0.0664 0.6480
vn -0.7576 -0.1088 0.6436
vn -0.6325 0.0831 -0.7701
vn -0.6213 0.2265 -0.7501
vn -0.6221 0.2203 -0.7513
vn -0.6227 0.2712 -0.7339
vn -0.6220 0.2745 -0.7333
vn -0.6159 0.3697 -0.6957
vn -0.6202 0.3485 -0.7027
vn -0.5582 0.5625 -0.6099
vn 0.7786 0.0761 -0.6228
vn 0.7862 0.1103 -0.6080
vn 0.7844 0.1018 -0.6118
vn 0.7823 0.1312 -0.6088
vn 0.7841 0.1326 -0.6063
vn 0.7723 0.2028 -0.6020
vn 0.7724 0.2011 -0.6025
vn 0.7649 0.2888 -0.5756
vn 0.6342 0.0410 0.7721
vn 0.6358 -0.0511 0.7701
vn 0.6358 -0.0551 0.7699
vn 0.6395 -0.1127 0.7604
vn 0.6397 -0.1118 0.7604
vn 0.6454 -0.1713 0.7444
vn 0.6460 -0.1602 0.7463
vn 0.6354 -0.2776 0.7205
vn 0.7622 0.0806 -0.6423
vn 0.7516 0.0873 -0.6538
vn 0.7538 0.0859 -0.6514
vn 0.7547 0.0288 -0.6554
vn 0.7498 0.0555 -0.6593
vn 0.7716 -0.0328 -0.6353
vn 0.7694 -0.0290 -0.6381
vn 0.7801 -0.0484 -0.6237
vn 0.5679 0.4465 0.6914
vn 0.5311 0.5575 0.6380
vn 0.5311 0.5576 0.6379
vn 0.4626 0.7104 0.5303
vn 0.4628 0.7101 0.5306
vn 0.3425 0.8614 0.3752
vn 0.3501 0.8545 0.3838
vn 0.2313 0.9406 0.2483
vn -0.7776 0.0661 0.6253
vn -0.7820 0.0829 0.6177
vn -0.7831 0.0873 0.6157
vn -0.7884 0.1082 0.6056
vn -0.7888 0.1094 0.6048
vn -0.8047 0.1202 0.5813
vn -0.8089 0.1226 0.5750
vn -0.8252 0.1322 0.5492
vn -0.5922 -0.3599 -0.7210
vn -0.5758 -0.4324 -0.6938
vn -0.5759 -0.4320 -0.6940
vn -0.5211 -0.6029 -0.6041
vn -0.5209 -0.6033 -0.6039
vn -0.4126 -0.7844 -0.4630
vn -0.4180 -0.7781 -0.4689
vn -0.3407 -0.8585 -0.3832
vn -0.7681 -0.0298 0.6396
vn -0.7703 -0.0361 0.6366
vn -0.7802 -0.0670 0.6218
vn -0.7569 0.0224 0.6531
vn -0.7570 0.0205 0.6530
vn -0.7569 0.0808 0.6485
vn -0.7567 0.0779 0.6490
vn -0.7577 0.1109 0.6431
vn 0.8171 0.1599 -0.5539
vn 0.8132 0.1496 -0.5624
vn 0.8340 0.2106 -0.5099
vn 0.7922 0.0949 -0.6028
vn 0.7920 0.0941 -0.6032
vn 0.7835 0.0880 -0.6151
vn 0.7830 0.0883 -0.6156
vn 0.7778 0.0920 -0.6217
vn -0.4071 0.7919 -0.4550
vn -0.3966 0.8047 -0.4418
vn -0.2786 0.9138 -0.2953
vn -0.5293 0.5769 -0.6221
vn -0.5287 0.5787 -0.6209
vn -0.5593 0.4793 -0.6763
vn -0.5593 0.4794 -0.6762
vn -0.5631 0.4614 -0.6856
vn 0.5704 -0.4687 0.6745
vn 0.5709 -0.4669 0.6753
vn 0.4952 -0.6583 0.5668
vn 0.4896 -0.6687 0.5596
vn 0.4306 -0.7614 0.4845
vn 0.5972 -0.3467 0.7233
vn 0.5972 -0.3466 0.7233
vn 0.6009 -0.3219 0.7316
vn 0.7496 -0.0479 -0.6601
vn 0.7355 0.0042 -0.6774
vn 0.7305 0.0210 -0.6825
vn 0.7268 0.0297 -0.6861
vn 0.7281 0.0253 -0.6850
vn 0.7568 -0.0353 -0.6527
vn 0.7567 -0.0353 -0.6527
vn 0.7722 -0.0414 -0.6339
vn 0.6134 0.1043 0.7828
vn 0.6229 0.2300 0.7477
vn 0.6226 0.2235 0.7499
vn 0.6343 0.2621 0.7273
vn 0.6340 0.2647 0.7266
vn 0.6305 0.3737 0.6803
vn 0.6368 0.3141 0.7041
vn 0.5964 0.5399 0.5940
vn -0.7738 0.0549 0.6310
vn -0.7558 0.1019 0.6468
vn -0.7597 0.0922 0.6437
vn -0.7541 0.1411 0.6414
vn -0.7505 0.1416 0.6455
vn -0.8202 0.1605 0.5491
vn -0.8315 0.1654 0.5304
vn -0.8813 0.1885 0.4332
vn -0.5788 0.0340 -0.8148
vn -0.5967 -0.0485 -0.8010
vn -0.5962 -0.0460 -0.8015
vn -0.6236 -0.1081 -0.7742
vn -0.6258 -0.1037 -0.7730
vn -0.6657 -0.1584 -0.7291
vn -0.6625 -0.1468 -0.7345
vn -0.6852 -0.2380 -0.6883
s 1
f 111/1/1 113/2/2 114/3/3 109/4/1
f 114/3/3 113/2/2 123/5/4 124/6/5
f 124/6/5 123/5/4 127/7/6 128/8/7
f 128/8/7 127/7/6 17/9/8
s 2
f 110/10/9 4/11/10 117/12/10 115/13/9
f 117/12/10 4/11/10 10/14/11 121/15/11
f 121/15/11 10/14/11 14/16/12 125/17/12
f 125/17/12 14/16/12 137/18/13 135/19/13
s 3
f 116/20/14 8/21/15 120/22/16 118/23/14
f 120/22/16 8/21/15 12/24/17 122/25/18
f 122/25/18 12/24/17 16/26/19 126/27/20
f 126/27/20 16/26/19 19/28/21
s 4
f 119/29/22 6/30/23 2/31/23 112/32/22
f 2/31/23 6/30/23 11/33/24 9/34/24
f 13/35/25 15/36/25 134/37/26 136/38/26
f 9/34/24 11/33/24 15/36/25 13/35/25
s 5
f 3/39/27 7/40/27 5/41/27 1/42/27
s 6
f 138/43/28 140/44/29 133/45/30 132/46/28
f 133/45/30 140/44/29 147/47/31 148/48/32
f 148/48/32 147/47/31 151/49/33 152/50/34
f 152/50/34 151/49/33 35/51/35
s 7
f 131/52/36 22/53/37 141/54/37 129/55/36
f 141/54/37 22/53/37 28/56/38 145/57/38
f 145/57/38 28/56/38 32/58/39 149/59/39
f 149/59/39 32/58/39 156/60/40 154/61/40
s 8
f 130/62/41 26/63/42 144/64/43 142/65/41
f 144/64/43 26/63/42 30/66/44 146/67/45
f 146/67/45 30/66/44 34/68/46 150/69/47
f 150/69/47 34/68/46 36/70/48
s 9
f 143/71/49 24/72/50 18/73/50 139/74/49
f 18/73/50 24/72/50 29/75/51 27/76/51
f 31/77/52 33/78/52 153/79/53 155/80/53
f 27/76/51 29/75/51 33/78/52 31/77/52
s 10
f 21/81/27 25/82/27 23/83/27 20/84/27
s 11
f 162/85/54 164/86/55 161/87/56 160/88/54
f 161/87/56 164/86/55 171/89/57 172/90/58
f 172/90/58 171/89/57 175/91/59 176/92/60
f 176/92/60 175/91/59 53/93/61
s 12
f 159/94/62 40/95/63 165/96/64 157/97/62
f 165/96/64 40/95/63 46/98/65 169/99/66
f 169/99/66 46/98/65 50/100/67 173/101/68
f 173/101/68 50/100/67 180/102/69 178/103/69
s 13
f 158/104/70 44/105/71 168/106/72 166/107/70
f 168/106/72 44/105/71 48/108/73 170/109/74
f 170/109/74 48/108/73 52/110/75 174/111/76
f 174/111/76 52/110/75 54/112/77
s 14
f 167/113/78 42/114/79 37/115/80 163/116/78
f 37/115/80 42/114/79 47/117/81 45/118/82
f 49/119/83 51/120/84 177/121/85 179/122/85
f 45/118/82 47/117/81 51/120/84 49/119/83
s 15
f 39/123/27 43/124/27 41/125/27 38/126/27
s 16
f 186/127/86 188/128/87 185/129/88 184/130/86
f 185/129/88 188/128/87 195/131/89 196/132/90
f 196/132/90 195/131/89 199/133/91 200/134/92
f 200/134/92 199/133/91 71/135/93
s 17
f 183/136/94 58/137/95 189/138/96 181/139/94
f 189/138/96 58/137/95 64/140/97 193/141/98
f 193/141/98 64/140/97 68/142/99 197/143/100
f 197/143/100 68/142/99 204/144/101 202/145/101
s 18
f 182/146/102 62/147/103 192/148/104 190/149/102
f 192/148/104 62/147/103 66/150/105 194/151/106
f 194/151/106 66/150/105 70/152/107 198/153/108
f 198/153/108 70/152/107 72/154/109
s 19
f 191/155/110 60/156/111 55/157/112 187/158/110
f 55/157/112 60/156/111 65/159/113 63/160/114
f 67/161/115 69/162/116 201/163/117 203/164/117
f 63/160/114 65/159/113 69/162/116 67/161/115
s 20
f 57/165/27 61/166/27 59/167/27 56/168/27
s 21
f 205/169/118 211/170/119 206/171/120
f 81/172/121 82/173/122 211/170/119 205/169/118
f 87/174/123 90/175/124 82/173/122 81/172/121
f 89/176/125 90/175/124 87/174/123 88/177/125
s 22
f 212/178/126 210/179/127 208/180/128
f 80/181/129 79/182/130 210/179/127 212/178/126
f 85/183/131 83/184/132 79/182/130 80/181/129
f 226/185/133 83/184/132 85/183/131 86/186/133
s 23
f 75/187/134 77/188/135 207/189/136 209/190/136
f 216/191/137 213/192/138 77/188/135 75/187/134
f 220/193/139 217/194/140 213/192/138 216/191/137
f 228/195/141 217/194/140 220/193/139 84/196/141
s 24
f 214/197/142 215/198/143 76/199/144 78/200/145
f 78/200/145 76/199/144 73/201/146 74/202/146
f 218/203/147 219/204/148 215/198/143 214/197/142
f 224/205/149 219/204/148 218/203/147 222/206/149
s 25
f 227/207/27 225/208/27 223/209/27 221/210/27
s 26
f 234/211/150 236/212/151 233/213/152 232/214/150
f 233/213/152 236/212/151 243/215/153 244/216/154
f 244/216/154 243/215/153 247/217/155 248/218/156
f 248/218/156 247/217/155 107/219/157
s 27
f 231/220/158 94/221/159 237/222/160 229/223/158
f 237/222/160 94/221/159 100/224/161 241/225/162
f 241/225/162 100/224/161 104/226/163 245/227/164
f 245/227/164 104/226/163 252/228/165 250/229/165
s 28
f 230/230/166 98/231/167 240/232/168 238/233/166
f 240/232/168 98/231/167 102/234/169 242/235/170
f 242/235/170 102/234/169 106/236/171 246/237/172
f 246/237/172 106/236/171 108/238/173
s 29
f 239/239/174 96/240/175 91/241/176 235/242/174
f 91/241/176 96/240/175 101/243/177 99/244/178
f 103/245/179 105/246/180 249/247/181 251/248/181
f 99/244/178 101/243/177 105/246/180 103/245/179
s 30
f 93/249/27 97/250/27 95/251/27 92/252/27
